module CLI-Tools

go 1.20

require (
	github.com/gorilla/sessions v1.2.1
	gorm.io/driver/postgres v1.5.0
	gorm.io/gorm v1.25.0
)

require (
	github.com/gorilla/securecookie v1.1.1 // indirect
	github.com/jackc/pgpassfile v1.0.0 // indirect
	github.com/jackc/pgservicefile v0.0.0-20221227161230-091c0ba34f0a // indirect
	github.com/jackc/pgx/v5 v5.3.1 // indirect
	golang.org/x/crypto v0.8.0 // indirect
	golang.org/x/text v0.9.0 // indirect
)

require (
	github.com/golang-jwt/jwt/v5 v5.0.0
	github.com/jinzhu/inflection v1.0.0 // indirect
	github.com/jinzhu/now v1.1.5 // indirect
	github.com/joho/godotenv v1.5.1
)
